Multi100: Raw to processed data cleaning
…
[1] 100

all_people

Check if analyst_id is unique to the person.

all_people |> 
  distinct(first_name, last_name, analyst_id) |>  
  group_by(first_name, last_name) |> 
  mutate(n_analyst_id = n()) |> 
  arrange(desc(n_analyst_id), last_name)

# A tibble: 1,165 × 4
# Groups:   first_name, last_name [1,142]
   first_name last_name analyst_id n_analyst_id
   <chr>      <chr>     <chr>             <int>
 1 Mahmoud    Elsherif  EZI7J                 3
 2 Mahmoud    Elsherif  MX02W                 3
 3 Mahmoud    Elsherif  4YT1I                 3
 4 Chris      Aberson   N8P2J                 2
 5 Chris      Aberson   NFTMG                 2
 6 Bulent     Acma      PI411                 2
 7 Bulent     Acma      C9N37                 2
 8 Marcus     Crede     LBUAI                 2
 9 Marcus     Crede     VCE46                 2
10 Raquel     Freitag   GUV2I                 2
# ℹ 1,155 more rows
…
Check for duplicate responses.

task2_duplicates <-
  task2 |> 
  group_by(paper_id, analyst_id) |> 
  mutate(n = n()) |> 
  filter(n > 1) |> 
  arrange(desc(n))

task2_duplicates |> 
  distinct(paper_id, analyst_id, n)

# A tibble: 65 × 3
# Groups:   paper_id, analyst_id [65]
   paper_id                          analyst_id     n
   <chr>                             <chr>      <int>
 1 Fehr_AmEcoRev_2011_gdlO           U8SV5          3
 2 Miller_JournConflictRes_2011_zV1O CJQM7          3
 3 Wilfahrt_WorldPolitics_2018_k7wj  3AQDX          3
 4 Chen_Demography_2018_yAPR         MX02W          3
 5 Fitzgerald_SocialForces_2018_4q0L YWYHV          3
 6 Hendricks_QuartJournEco_2018_wNKW 543X6          3
 7 BATESON_AmPoliSciRev_2012_RYKv    7HMNU          2
 8 McDevitt_JournPoliEco_2014_yQeR   DAA9C          2
 9 Einstein_AmJourPoliSci_2017_mxyQ  UYV3F          2
10 Nyhan_JournExpPoliSci_2015_DEqr   K88ZQ          2
# ℹ 55 more rows
…
Check the number of distinct papers based on paper_id after joining task1 and task2 responses. There should be a 100 distinct papers in the dataset.

multi100_data |> 
  distinct(paper_id) |> 
  nrow()

[1] 100

Check number of analyses based on paper_id.

multi100_data |> 
  count(paper_id) |> 
  arrange(desc(n))

# A tibble: 100 × 2
   paper_id                                      n
   <chr>                                     <int>
 1 Chen_Demography_2018_yAPR                     7
 2 Christensen_EurJournPersonality_2018_8R9d     7
 3 Angrist_AmEcoRev_2009_Gv3O                    6
 4 Bingham Powell_CompPolitStu_2009_0PZl         6
 5 Cleave_ExpEco_2013_Njqj                       6
 6 Desmond_Demography_2015_qQ9Z                  6
 7 Fehr_AmEcoRev_2011_gdlO                       6
 8 Fuhrmann_JournConflictRes_2010_8Wy0           6
 9 Goerg_JournLabEco_2010_WLpV                   6
10 Huijts_EurSocioRev_2013_OY3B                  6
# ℹ 90 more rows
…
Remove case where evaluator reviewed their own analysis (!SN. 462: WJVLO_Pastötter_Cognition_2013_EQxa_WJVLO). We decided to treat this responses as non-valid response and do not include it in the summary statistics for the peer evaluation in the results section of the paper.

peer_eval <-
  peer_eval |> 
  filter(peereval_submission_number != 462)

Count the number of times each paper_id and analyst_id appears in peer_eval.

peer_eval %>%
  count(paper_id, analyst_id) |> 
  arrange(desc(n))

# A tibble: 279 × 3
   paper_id                         analyst_id     n
   <chr>                            <chr>      <int>
 1 Chen_Demography_2018_yAPR        YSAKF          4
 2 Grose_AmJourPoliSci_2015_E0Q3    MMLOE          3
 3 Liu_JournMarket_2015_9DZl        UPE13          3
 4 Nelson_JournConsRes_2009_eg1q    EZI7J          3
 5 Wlezien_CompPolitStu_2017_ByBk   5GT7K          3
 6 ANN_SLOCUM_Criminology_2010_JxXe 5AV43          2
 7 ANN_SLOCUM_Criminology_2010_JxXe W2VHN          2
 8 Alves_PsychologSci_2018_AvOr     JX2VH          2
 9 Alves_PsychologSci_2018_AvOr     XCTOL          2
10 Anderson_AmEcoJourn_2011_bLe8    12HIO          2
# ℹ 269 more rows
…
